waveform.vcd
$date
  Sun Nov 10 12:42:05 2024
$end
$version
  GHDL v0
$end
$timescale
  1 fs
$end
$scope module standard $end
$upscope $end
$scope module textio $end
$upscope $end
$scope module std_logic_1164 $end
$upscope $end
$scope module env $end
$upscope $end
$scope module numeric_std $end
$upscope $end
$scope module myuart_tb $end
$var reg 1 ! clk $end
$var reg 1 " clr $end
$var reg 8 # din[7:0] $end
$var reg 1 $ wen $end
$var reg 1 % busy $end
$var reg 1 & sout $end
$var reg 1 ' baud_en $end
$var integer 32 ( baud_en_cnt $end
$var integer 32 ) sout_idx $end
$var reg 10 * expected_sout[9:0] $end
$var reg 10 + sout_arr[9:0] $end
$scope module myuart_inst $end
$var reg 8 , din[7:0] $end
$var reg 1 - busy $end
$var reg 1 . wen $end
$var reg 1 / sout $end
$var reg 1 0 clr $end
$var reg 1 1 clk $end
$comment state is not handled $end
$var reg 4 2 baud_counter[3:0] $end
$var reg 4 3 repeat_counter[3:0] $end
$var reg 10 4 data_reg[9:0] $end
$var reg 1 5 data_temp $end
$var reg 10 6 data_reg_temp[9:0] $end
$upscope $end
$upscope $end
$enddefinitions $end
#0
0!
1"
bUUUUUUUU #
0$
0%
U&
0'
b0 (
b0 )
b1010010110 *
bUUUUUUUUUU +
bUUUUUUUU ,
0-
0.
U/
10
01
b0000 2
b0000 3
b1000000001 4
15
b1000000001 6
#5000000
1!
b1 (
11
#10000000
0!
0"
00
01
#15000000
1!
b10 (
11
#20000000
0!
01
#25000000
1!
b11 (
11
#30000000
0!
01
#35000000
1!
b100 (
11
#40000000
0!
01
#45000000
1!
1'
b101 (
11
#50000000
0!
01
#55000000
1!
0'
b110 (
11
#60000000
0!
01
#65000000
1!
b111 (
11
#70000000
0!
01
#75000000
1!
b1000 (
11
#80000000
0!
01
#85000000
1!
b1001 (
11
#90000000
0!
01
#95000000
1!
b0 (
11
#100000000
0!
01
#105000000
1!
b1 (
11
#110000000
0!
01
#115000000
1!
b10 (
11
#120000000
0!
01
#125000000
1!
b11 (
11
#130000000
0!
01
#135000000
1!
b100 (
11
#140000000
0!
01
#145000000
1!
1'
b101 (
11
#150000000
0!
01
#155000000
1!
0'
b110 (
11
#160000000
0!
01
#165000000
1!
b111 (
11
#170000000
0!
01
#175000000
1!
b1000 (
11
#180000000
0!
01
#185000000
1!
b1001 (
11
#190000000
0!
01
#195000000
1!
b0 (
11
#200000000
0!
b01001011 #
1$
b01001011 ,
1.
01
#205000000
1!
1%
b1 (
1-
11
b1010010110 4
#210000000
0!
0$
0.
01
#215000000
1!
1&
b10 (
1/
11
b0001 2
05
#220000000
0!
01
#225000000
1!
0&
b11 (
0/
11
b0010 2
#230000000
0!
01
#235000000
1!
b100 (
11
b0011 2
#240000000
0!
01
#245000000
1!
1'
b101 (
11
b0100 2
#250000000
0!
01
#255000000
1!
0'
b110 (
b1 )
bUUUUUUUUU0 +
11
b0101 2
#260000000
0!
01
#265000000
1!
b111 (
11
b0110 2
#270000000
0!
01
#275000000
1!
b1000 (
11
b0111 2
#280000000
0!
01
#285000000
1!
b1001 (
11
b1000 2
#290000000
0!
01
#295000000
1!
b0 (
11
b1001 2
#300000000
0!
01
#305000000
1!
b1 (
11
b0000 2
b0001 3
b1101001011 4
#310000000
0!
01
#315000000
1!
b10 (
11
b0001 2
15
#320000000
0!
01
#325000000
1!
1&
b11 (
1/
11
b0010 2
#330000000
0!
01
#335000000
1!
b100 (
11
b0011 2
#340000000
0!
01
#345000000
1!
1'
b101 (
11
b0100 2
#350000000
0!
01
#355000000
1!
0'
b110 (
b10 )
bUUUUUUUU10 +
11
b0101 2
#360000000
0!
01
#365000000
1!
b111 (
11
b0110 2
#370000000
0!
01
#375000000
1!
b1000 (
11
b0111 2
#380000000
0!
01
#385000000
1!
b1001 (
11
b1000 2
#390000000
0!
01
#395000000
1!
b0 (
11
b1001 2
#400000000
0!
01
#405000000
1!
b1 (
11
b0000 2
b0010 3
b1110100101 4
#410000000
0!
01
#415000000
1!
b10 (
11
b0001 2
#420000000
0!
01
#425000000
1!
b11 (
11
b0010 2
#430000000
0!
01
#435000000
1!
b100 (
11
b0011 2
#440000000
0!
01
#445000000
1!
1'
b101 (
11
b0100 2
#450000000
0!
01
#455000000
1!
0'
b110 (
b11 )
bUUUUUUU110 +
11
b0101 2
#460000000
0!
01
#465000000
1!
b111 (
11
b0110 2
#470000000
0!
01
#475000000
1!
b1000 (
11
b0111 2
#480000000
0!
01
#485000000
1!
b1001 (
11
b1000 2
#490000000
0!
01
#495000000
1!
b0 (
11
b1001 2
#500000000
0!
01
#505000000
1!
b1 (
11
b0000 2
b0011 3
b1111010010 4
#510000000
0!
01
#515000000
1!
b10 (
11
b0001 2
05
#520000000
0!
01
#525000000
1!
0&
b11 (
0/
11
b0010 2
#530000000
0!
01
#535000000
1!
b100 (
11
b0011 2
#540000000
0!
01
#545000000
1!
1'
b101 (
11
b0100 2
#550000000
0!
01
#555000000
1!
0'
b110 (
b100 )
bUUUUUU0110 +
11
b0101 2
#560000000
0!
01
#565000000
1!
b111 (
11
b0110 2
#570000000
0!
01
#575000000
1!
b1000 (
11
b0111 2
#580000000
0!
01
#585000000
1!
b1001 (
11
b1000 2
#590000000
0!
01
#595000000
1!
b0 (
11
b1001 2
#600000000
0!
01
#605000000
1!
b1 (
11
b0000 2
b0100 3
b1111101001 4
#610000000
0!
01
#615000000
1!
b10 (
11
b0001 2
15
#620000000
0!
01
#625000000
1!
1&
b11 (
1/
11
b0010 2
#630000000
0!
01
#635000000
1!
b100 (
11
b0011 2
#640000000
0!
01
#645000000
1!
1'
b101 (
11
b0100 2
#650000000
0!
01
#655000000
1!
0'
b110 (
b101 )
bUUUUU10110 +
11
b0101 2
#660000000
0!
01
#665000000
1!
b111 (
11
b0110 2
#670000000
0!
01
#675000000
1!
b1000 (
11
b0111 2
#680000000
0!
01
#685000000
1!
b1001 (
11
b1000 2
#690000000
0!
01
#695000000
1!
b0 (
11
b1001 2
#700000000
0!
01
#705000000
1!
b1 (
11
b0000 2
b0101 3
b1111110100 4
#710000000
0!
01
#715000000
1!
b10 (
11
b0001 2
05
#720000000
0!
01
#725000000
1!
0&
b11 (
0/
11
b0010 2
#730000000
0!
01
#735000000
1!
b100 (
11
b0011 2
#740000000
0!
01
#745000000
1!
1'
b101 (
11
b0100 2
#750000000
0!
01
#755000000
1!
0'
b110 (
b110 )
bUUUU010110 +
11
b0101 2
#760000000
0!
01
#765000000
1!
b111 (
11
b0110 2
#770000000
0!
01
#775000000
1!
b1000 (
11
b0111 2
#780000000
0!
01
#785000000
1!
b1001 (
11
b1000 2
#790000000
0!
01
#795000000
1!
b0 (
11
b1001 2
#800000000
0!
01
#805000000
1!
b1 (
11
b0000 2
b0110 3
b1111111010 4
#810000000
0!
01
#815000000
1!
b10 (
11
b0001 2
#820000000
0!
01
#825000000
1!
b11 (
11
b0010 2
#830000000
0!
01
#835000000
1!
b100 (
11
b0011 2
#840000000
0!
01
#845000000
1!
1'
b101 (
11
b0100 2
#850000000
0!
01
#855000000
1!
0'
b110 (
b111 )
bUUU0010110 +
11
b0101 2
#860000000
0!
01
#865000000
1!
b111 (
11
b0110 2
#870000000
0!
01
#875000000
1!
b1000 (
11
b0111 2
#880000000
0!
01
#885000000
1!
b1001 (
11
b1000 2
#890000000
0!
01
#895000000
1!
b0 (
11
b1001 2
#900000000
0!
01
#905000000
1!
b1 (
11
b0000 2
b0111 3
b1111111101 4
#910000000
0!
01
#915000000
1!
b10 (
11
b0001 2
15
#920000000
0!
01
#925000000
1!
1&
b11 (
1/
11
b0010 2
#930000000
0!
01
#935000000
1!
b100 (
11
b0011 2
#940000000
0!
01
#945000000
1!
1'
b101 (
11
b0100 2
#950000000
0!
01
#955000000
1!
0'
b110 (
b1000 )
bUU10010110 +
11
b0101 2
#960000000
0!
01
#965000000
1!
b111 (
11
b0110 2
#970000000
0!
01
#975000000
1!
b1000 (
11
b0111 2
#980000000
0!
01
#985000000
1!
b1001 (
11
b1000 2
#990000000
0!
01
#995000000
1!
b0 (
11
b1001 2
#1000000000
0!
01
#1005000000
1!
b1 (
11
b0000 2
b1000 3
b1111111110 4
#1010000000
0!
01
#1015000000
1!
b10 (
11
b0001 2
05
#1020000000
0!
01
#1025000000
1!
0&
b11 (
0/
11
b0010 2
#1030000000
0!
01
#1035000000
1!
b100 (
11
b0011 2
#1040000000
0!
01
#1045000000
1!
1'
b101 (
11
b0100 2
#1050000000
0!
01
#1055000000
1!
0'
b110 (
b1001 )
bU010010110 +
11
b0101 2
#1060000000
0!
01
#1065000000
1!
b111 (
11
b0110 2
#1070000000
0!
01
#1075000000
1!
b1000 (
11
b0111 2
#1080000000
0!
01
#1085000000
1!
b1001 (
11
b1000 2
#1090000000
0!
01
#1095000000
1!
b0 (
11
b1001 2
#1100000000
0!
01
#1105000000
1!
b1 (
11
b0000 2
b1001 3
b1111111111 4
#1110000000
0!
01
#1115000000
1!
b10 (
11
b0001 2
15
#1120000000
0!
01
#1125000000
1!
1&
b11 (
1/
11
b0010 2
#1130000000
0!
01
#1135000000
1!
b100 (
11
b0011 2
#1140000000
0!
01
#1145000000
1!
1'
b101 (
11
b0100 2
#1150000000
0!
01
#1155000000
1!
0'
b110 (
b1010 )
b1010010110 +
11
b0101 2
#1160000000
0!
01
#1165000000
1!
b111 (
11
b0110 2
#1170000000
0!
01
#1175000000
1!
b1000 (
11
b0111 2
#1180000000
0!
01
#1185000000
1!
b1001 (
11
b1000 2
#1190000000
0!
01
#1195000000
1!
b0 (
11
b1001 2
#1200000000
0!
01
#1205000000
1!
0%
b1 (
0-
11
b0000 2
b1010 3
#1210000000
0!
01
#1215000000
1!
b10 (
11
#1220000000
0!
01
#1225000000
1!
b11 (
11
#1230000000
0!
01
#1235000000
1!
b100 (
11
#1240000000
0!
01
#1245000000
1!
1'
b101 (
11
#1250000000
0!
01
#1255000000
1!
0'
b110 (
11
#1260000000
0!
01
#1265000000
1!
b111 (
11
#1270000000
0!
01
#1275000000
1!
b1000 (
11
#1280000000
0!
01
#1285000000
1!
b1001 (
11
#1290000000
0!
01
#1295000000
1!
b0 (
11
#1300000000
0!
01
#1305000000
1!
b1 (
11
#1310000000
0!
01
#1315000000
1!
b10 (
11
#1320000000
0!
01
#1325000000
1!
b11 (
11
#1330000000
0!
01
#1335000000
1!
b100 (
11
#1340000000
0!
01
#1345000000
1!
1'
b101 (
11
#1350000000
0!
01
#1355000000
1!
0'
b110 (
11
#1360000000
0!
01
#1365000000
1!
b111 (
11
#1370000000
0!
01
#1375000000
1!
b1000 (
11
#1380000000
0!
01
#1385000000
1!
b1001 (
11
#1390000000
0!
01
#1395000000
1!
b0 (
11
#1400000000
0!
01
#1405000000
1!
b1 (
11
#1410000000
0!
01
#1415000000
1!
b10 (
11
#1420000000
0!
01
#1425000000
1!
b11 (
11
#1430000000
0!
01
#1435000000
1!
b100 (
11
#1440000000
0!
01
#1445000000
1!
1'
b101 (
11
#1450000000
0!
01
#1455000000
1!
0'
b110 (
11
#1460000000
0!
01
#1465000000
1!
b111 (
11
#1470000000
0!
01
#1475000000
1!
b1000 (
11
#1480000000
0!
01
#1485000000
1!
b1001 (
11
#1490000000
0!
01
#1495000000
1!
b0 (
11
#1500000000
0!
01
#1505000000
1!
b1 (
11
#1510000000
0!
01
#1515000000
1!
b10 (
11
#1520000000
0!
01
#1525000000
1!
b11 (
11
#1530000000
0!
01
#1535000000
1!
b100 (
11
#1540000000
0!
01
#1545000000
1!
1'
b101 (
11
#1550000000
0!
01
#1555000000
1!
0'
b110 (
11
#1560000000
0!
01
#1565000000
1!
b111 (
11
#1570000000
0!
01
#1575000000
1!
b1000 (
11
#1580000000
0!
01
#1585000000
1!
b1001 (
11
#1590000000
0!
01
#1595000000
1!
b0 (
11
#1600000000
0!
01
#1605000000
1!
b1 (
11
#1610000000
0!
01
#1615000000
1!
b10 (
11
#1620000000
0!
01
#1625000000
1!
b11 (
11
#1630000000
0!
01
#1635000000
1!
b100 (
11
#1640000000
0!
01
#1645000000
1!
1'
b101 (
11
#1650000000
0!
01
#1655000000
1!
0'
b110 (
11
#1660000000
0!
01
#1665000000
1!
b111 (
11
#1670000000
0!
01
#1675000000
1!
b1000 (
11
#1680000000
0!
01
#1685000000
1!
b1001 (
11
#1690000000
0!
01
#1695000000
1!
b0 (
11
#1700000000
0!
01
#1705000000
1!
b1 (
11
#1710000000
0!
01
#1715000000
1!
b10 (
11
#1720000000
0!
01
#1725000000
1!
b11 (
11
#1730000000
0!
01
#1735000000
1!
b100 (
11
#1740000000
0!
01
#1745000000
1!
1'
b101 (
11
#1750000000
0!
01
#1755000000
1!
0'
b110 (
11
#1760000000
0!
01
#1765000000
1!
b111 (
11
#1770000000
0!
01
#1775000000
1!
b1000 (
11
#1780000000
0!
01
#1785000000
1!
b1001 (
11
#1790000000
0!
01
#1795000000
1!
b0 (
11
#1800000000
0!
01
#1805000000
1!
b1 (
11
#1810000000
0!
01
#1815000000
1!
b10 (
11
#1820000000
0!
01
#1825000000
1!
b11 (
11
#1830000000
0!
01
#1835000000
1!
b100 (
11
#1840000000
0!
01
#1845000000
1!
1'
b101 (
11
#1850000000
0!
01
#1855000000
1!
0'
b110 (
11
#1860000000
0!
01
#1865000000
1!
b111 (
11
#1870000000
0!
01
#1875000000
1!
b1000 (
11
#1880000000
0!
01
#1885000000
1!
b1001 (
11
#1890000000
0!
01
#1895000000
1!
b0 (
11
#1900000000
0!
01
#1905000000
1!
b1 (
11
#1910000000
0!
01
#1915000000
1!
b10 (
11
#1920000000
0!
01
#1925000000
1!
b11 (
11
#1930000000
0!
01
#1935000000
1!
b100 (
11
#1940000000
0!
01
#1945000000
1!
1'
b101 (
11
#1950000000
0!
01
#1955000000
1!
0'
b110 (
11
#1960000000
0!
01
#1965000000
1!
b111 (
11
#1970000000
0!
01
#1975000000
1!
b1000 (
11
#1980000000
0!
01
#1985000000
1!
b1001 (
11
#1990000000
0!
01
#1995000000
1!
b0 (
11
#2000000000
0!
01
#2005000000
1!
b1 (
11
#2010000000
0!
01
#2015000000
1!
b10 (
11
#2020000000
0!
01
#2025000000
1!
b11 (
11
#2030000000
0!
01
#2035000000
1!
b100 (
11
#2040000000
0!
01
#2045000000
1!
1'
b101 (
11
#2050000000
0!
01
#2055000000
1!
0'
b110 (
11
#2060000000
0!
01
#2065000000
1!
b111 (
11
#2070000000
0!
01
#2075000000
1!
b1000 (
11
#2080000000
0!
01
#2085000000
1!
b1001 (
11
#2090000000
0!
01
#2095000000
1!
b0 (
11
#2100000000
0!
01
#2105000000
1!
b1 (
11
#2110000000
0!
01
#2115000000
1!
b10 (
11
#2120000000
0!
01
#2125000000
1!
b11 (
11
#2130000000
0!
01
#2135000000
1!
b100 (
11
#2140000000
0!
01
#2145000000
1!
1'
b101 (
11
#2150000000
0!
01
#2155000000
1!
0'
b110 (
11
#2160000000
0!
01
#2165000000
1!
b111 (
11
#2170000000
0!
01
#2175000000
1!
b1000 (
11
#2180000000
0!
01
#2185000000
1!
b1001 (
11
#2190000000
0!
01
#2195000000
1!
b0 (
11
